<?xml version="1.0" encoding="UTF-8" standalone="no"?>
<!DOCTYPE svg PUBLIC "-//W3C//DTD SVG 1.0//EN" "http://www.w3.org/TR/2001/REC-SVG-20010904/DTD/svg10.dtd">
<!-- Généré par Microsoft Visio 11.0, SVG Export, v1.0 Dessin1.svg Page-1 -->
<svg xmlns="http://www.w3.org/2000/svg" xmlns:xlink="http://www.w3.org/1999/xlink" xmlns:ev="http://www.w3.org/2001/xml-events"
		xmlns:v="http://schemas.microsoft.com/visio/2003/SVGExtensions/" width="11.6929in" height="8.26772in"
		viewBox="0 0 841.89 595.276" xml:space="preserve" color-interpolation-filters="sRGB" class="st8">
	<v:documentProperties v:langID="1036" v:metric="true" v:viewMarkup="false">
		<v:userDefs>
			<v:ud v:nameU="msvNoAutoConnect" v:val="VT0(0):26"/>
		</v:userDefs>
	</v:documentProperties>

	<style type="text/css">
	<![CDATA[
		.st1 {visibility:visible}
		.st2 {fill:#cdcdcd;fill-opacity:0.5;stroke:#cdcdcd;stroke-linecap:round;stroke-linejoin:round;stroke-opacity:0.5;stroke-width:0.25}
		.st3 {fill:url(#grad30-6);stroke:#404040;stroke-linecap:round;stroke-linejoin:round;stroke-width:0.25}
		.st4 {fill:#000000;font-family:Calibri;font-size:0.666664em}
		.st5 {marker-end:url(#mrkr5-32);stroke:#404040;stroke-linecap:round;stroke-linejoin:round;stroke-width:1}
		.st6 {fill:#404040;fill-opacity:1;stroke:#404040;stroke-opacity:1;stroke-width:0.28409090909091}
		.st7 {font-size:1em}
		.st8 {fill:none;fill-rule:evenodd;font-size:12px;overflow:visible;stroke-linecap:square;stroke-miterlimit:3}
	]]>
	</style>

	<defs id="Patterns_And_Gradients">
		<linearGradient id="grad30-6" v:fillPattern="30" v:foreground="#f0f0f0" v:background="#ffffff" x1="0" y1="1" x2="0" y2="0">
			<stop offset="0" style="stop-color:#f0f0f0;stop-opacity:1"/>
			<stop offset="1" style="stop-color:#ffffff;stop-opacity:1"/>
		</linearGradient>
	</defs>
	<defs id="Markers">
		<g id="lend5">
			<path d="M 2 1 L 0 0 L 1.98117 -0.993387 C 1.67173 -0.364515 1.67301 0.372641 1.98465 1.00043 " style="stroke:none"/>
		</g>
		<marker id="mrkr5-32" class="st6" v:arrowType="5" v:arrowSize="2" v:setback="6.16" refX="-6.16" orient="auto"
				markerUnits="strokeWidth" overflow="visible">
			<use xlink:href="#lend5" transform="scale(-3.52,-3.52) "/>
		</marker>
	</defs>
	<g v:mID="0" v:index="1" v:groupContext="foregroundPage">
		<v:userDefs>
			<v:ud v:nameU="msvThemeColors" v:val="VT0(36):26"/>
			<v:ud v:nameU="msvThemeEffects" v:val="VT0(16):26"/>
			<v:ud v:nameU="msvThemeOrder" v:val="VT0(0):26"/>
		</v:userDefs>
		<title>Page 1</title>
		<v:pageProperties v:drawingScale="0.0393701" v:pageScale="0.0393701" v:drawingUnits="24" v:shadowOffsetX="8.50394"
				v:shadowOffsetY="-8.50394"/>
		<v:layer v:name="Diagramme de flux" v:index="0"/>
		<v:layer v:name="Lien" v:index="1"/>
		<g id="shape1-1" v:mID="1" v:groupContext="shape" v:layerMember="0" transform="translate(141.732,-231.732)">
			<title>Processus</title>
			<desc>Core</desc>
			<v:custProps>
				<v:cp v:nameU="Cost" v:lbl="Coût" v:prompt="" v:type="7" v:format="@" v:sortKey="" v:invis="false" v:ask="false"
						v:langID="1036" v:cal="0"/>
				<v:cp v:nameU="ProcessNumber" v:lbl="Numéro de processus" v:prompt="" v:type="2" v:format="" v:sortKey=""
						v:invis="false" v:ask="false" v:langID="1036" v:cal="0"/>
				<v:cp v:nameU="Owner" v:lbl="Propriétaire" v:prompt="" v:type="0" v:format="" v:sortKey="" v:invis="false"
						v:ask="false" v:langID="1036" v:cal="0"/>
				<v:cp v:nameU="Function" v:lbl="Fonction" v:prompt="" v:type="0" v:format="" v:sortKey="" v:invis="false"
						v:ask="false" v:langID="1036" v:cal="0" v:val="VT4()"/>
				<v:cp v:nameU="StartDate" v:lbl="Date de début" v:prompt="" v:type="5" v:format="" v:sortKey="" v:invis="false"
						v:ask="false" v:langID="1036" v:cal="0"/>
				<v:cp v:nameU="EndDate" v:lbl="Date de fin" v:prompt="" v:type="5" v:format="" v:sortKey="" v:invis="false"
						v:ask="false" v:langID="1036" v:cal="0"/>
				<v:cp v:nameU="Status" v:lbl="État" v:prompt="" v:type="4"
						v:format=";Non commencé;En cours;Terminé;Différé;En attente d’une contribution" v:sortKey=""
						v:invis="false" v:ask="false" v:langID="1036" v:cal="0" v:val="VT4()"/>
			</v:custProps>
			<v:userDefs>
				<v:ud v:nameU="visVersion" v:prompt="" v:val="VT0(14):26"/>
				<v:ud v:nameU="DefaultWidth" v:prompt="" v:val="VT0(0.98425196850394):24"/>
				<v:ud v:nameU="DefaultHeight" v:prompt="" v:val="VT0(0.59055118110236):24"/>
				<v:ud v:nameU="ResizeTxtHeight" v:prompt="" v:val="VT0(0.59055118110236):24"/>
				<v:ud v:nameU="msvThemeColors" v:val="VT0(36):26"/>
				<v:ud v:nameU="msvThemeEffects" v:val="VT0(16):26"/>
			</v:userDefs>
			<v:textBlock v:margins="rect(2,2,2,2)" v:tabSpace="42.5197"/>
			<v:textRect cx="21.2598" cy="582.52" width="42.52" height="25.5118"/>
			<g id="shadow1-2" v:groupContext="shadow" v:shadowOffsetX="1.44" v:shadowOffsetY="-1.44" v:shadowType="1"
					transform="matrix(1,0,0,1,1.44,1.44)" class="st1">
				<rect x="0" y="569.764" width="42.5197" height="25.5118" class="st2"/>
			</g>
			<rect x="0" y="569.764" width="42.5197" height="25.5118" class="st3"/>
			<text x="13.63" y="584.92" class="st4" v:langID="1036"><v:paragraph v:horizAlign="1"/><v:tabList/>Core</text>		</g>
		<g id="shape4-8" v:mID="4" v:groupContext="shape" v:layerMember="0" transform="translate(240.945,-308.268)">
			<title>Processus.4</title>
			<desc>Entrées</desc>
			<v:custProps>
				<v:cp v:nameU="Cost" v:lbl="Coût" v:prompt="" v:type="7" v:format="@" v:sortKey="" v:invis="false" v:ask="false"
						v:langID="1036" v:cal="0"/>
				<v:cp v:nameU="ProcessNumber" v:lbl="Numéro de processus" v:prompt="" v:type="2" v:format="" v:sortKey=""
						v:invis="false" v:ask="false" v:langID="1036" v:cal="0"/>
				<v:cp v:nameU="Owner" v:lbl="Propriétaire" v:prompt="" v:type="0" v:format="" v:sortKey="" v:invis="false"
						v:ask="false" v:langID="1036" v:cal="0"/>
				<v:cp v:nameU="Function" v:lbl="Fonction" v:prompt="" v:type="0" v:format="" v:sortKey="" v:invis="false"
						v:ask="false" v:langID="1036" v:cal="0" v:val="VT4()"/>
				<v:cp v:nameU="StartDate" v:lbl="Date de début" v:prompt="" v:type="5" v:format="" v:sortKey="" v:invis="false"
						v:ask="false" v:langID="1036" v:cal="0"/>
				<v:cp v:nameU="EndDate" v:lbl="Date de fin" v:prompt="" v:type="5" v:format="" v:sortKey="" v:invis="false"
						v:ask="false" v:langID="1036" v:cal="0"/>
				<v:cp v:nameU="Status" v:lbl="État" v:prompt="" v:type="4"
						v:format=";Non commencé;En cours;Terminé;Différé;En attente d’une contribution" v:sortKey=""
						v:invis="false" v:ask="false" v:langID="1036" v:cal="0" v:val="VT4()"/>
			</v:custProps>
			<v:userDefs>
				<v:ud v:nameU="visVersion" v:prompt="" v:val="VT0(14):26"/>
				<v:ud v:nameU="DefaultWidth" v:prompt="" v:val="VT0(0.98425196850394):24"/>
				<v:ud v:nameU="DefaultHeight" v:prompt="" v:val="VT0(0.59055118110236):24"/>
				<v:ud v:nameU="ResizeTxtHeight" v:prompt="" v:val="VT0(0.59055118110236):24"/>
				<v:ud v:nameU="msvThemeColors" v:val="VT0(36):26"/>
				<v:ud v:nameU="msvThemeEffects" v:val="VT0(16):26"/>
			</v:userDefs>
			<v:textBlock v:margins="rect(2,2,2,2)" v:tabSpace="42.5197"/>
			<v:textRect cx="35.4331" cy="574.016" width="70.87" height="42.5197"/>
			<g id="shadow4-9" v:groupContext="shadow" v:shadowOffsetX="1.44" v:shadowOffsetY="-1.44" v:shadowType="1"
					transform="matrix(1,0,0,1,1.44,1.44)" class="st1">
				<rect x="0" y="552.756" width="70.8661" height="42.5197" class="st2"/>
			</g>
			<rect x="0" y="552.756" width="70.8661" height="42.5197" class="st3"/>
			<text x="23.1" y="576.42" class="st4" v:langID="1036"><v:paragraph v:horizAlign="1"/><v:tabList/>Entrées</text>		</g>
		<g id="shape5-14" v:mID="5" v:groupContext="shape" v:layerMember="0" transform="translate(240.945,-138.189)">
			<title>Processus.5</title>
			<desc>Affichage</desc>
			<v:custProps>
				<v:cp v:nameU="Cost" v:lbl="Coût" v:prompt="" v:type="7" v:format="@" v:sortKey="" v:invis="false" v:ask="false"
						v:langID="1036" v:cal="0"/>
				<v:cp v:nameU="ProcessNumber" v:lbl="Numéro de processus" v:prompt="" v:type="2" v:format="" v:sortKey=""
						v:invis="false" v:ask="false" v:langID="1036" v:cal="0"/>
				<v:cp v:nameU="Owner" v:lbl="Propriétaire" v:prompt="" v:type="0" v:format="" v:sortKey="" v:invis="false"
						v:ask="false" v:langID="1036" v:cal="0"/>
				<v:cp v:nameU="Function" v:lbl="Fonction" v:prompt="" v:type="0" v:format="" v:sortKey="" v:invis="false"
						v:ask="false" v:langID="1036" v:cal="0" v:val="VT4()"/>
				<v:cp v:nameU="StartDate" v:lbl="Date de début" v:prompt="" v:type="5" v:format="" v:sortKey="" v:invis="false"
						v:ask="false" v:langID="1036" v:cal="0"/>
				<v:cp v:nameU="EndDate" v:lbl="Date de fin" v:prompt="" v:type="5" v:format="" v:sortKey="" v:invis="false"
						v:ask="false" v:langID="1036" v:cal="0"/>
				<v:cp v:nameU="Status" v:lbl="État" v:prompt="" v:type="4"
						v:format=";Non commencé;En cours;Terminé;Différé;En attente d’une contribution" v:sortKey=""
						v:invis="false" v:ask="false" v:langID="1036" v:cal="0" v:val="VT4()"/>
			</v:custProps>
			<v:userDefs>
				<v:ud v:nameU="visVersion" v:prompt="" v:val="VT0(14):26"/>
				<v:ud v:nameU="DefaultWidth" v:prompt="" v:val="VT0(0.98425196850394):24"/>
				<v:ud v:nameU="DefaultHeight" v:prompt="" v:val="VT0(0.59055118110236):24"/>
				<v:ud v:nameU="ResizeTxtHeight" v:prompt="" v:val="VT0(0.59055118110236):24"/>
				<v:ud v:nameU="msvThemeColors" v:val="VT0(36):26"/>
				<v:ud v:nameU="msvThemeEffects" v:val="VT0(16):26"/>
			</v:userDefs>
			<v:textBlock v:margins="rect(2,2,2,2)" v:tabSpace="42.5197"/>
			<v:textRect cx="35.4331" cy="574.016" width="70.87" height="42.5197"/>
			<g id="shadow5-15" v:groupContext="shadow" v:shadowOffsetX="1.44" v:shadowOffsetY="-1.44" v:shadowType="1"
					transform="matrix(1,0,0,1,1.44,1.44)" class="st1">
				<rect x="0" y="552.756" width="70.8661" height="42.5197" class="st2"/>
			</g>
			<rect x="0" y="552.756" width="70.8661" height="42.5197" class="st3"/>
			<text x="20.18" y="576.42" class="st4" v:langID="1036"><v:paragraph v:horizAlign="1"/><v:tabList/>Affichage</text>		</g>
		<g id="shape2-20" v:mID="2" v:groupContext="shape" v:layerMember="0" transform="translate(240.945,-223.228)">
			<title>Processus.2</title>
			<desc>Interactions</desc>
			<v:custProps>
				<v:cp v:nameU="Cost" v:lbl="Coût" v:prompt="" v:type="7" v:format="@" v:sortKey="" v:invis="false" v:ask="false"
						v:langID="1036" v:cal="0"/>
				<v:cp v:nameU="ProcessNumber" v:lbl="Numéro de processus" v:prompt="" v:type="2" v:format="" v:sortKey=""
						v:invis="false" v:ask="false" v:langID="1036" v:cal="0"/>
				<v:cp v:nameU="Owner" v:lbl="Propriétaire" v:prompt="" v:type="0" v:format="" v:sortKey="" v:invis="false"
						v:ask="false" v:langID="1036" v:cal="0"/>
				<v:cp v:nameU="Function" v:lbl="Fonction" v:prompt="" v:type="0" v:format="" v:sortKey="" v:invis="false"
						v:ask="false" v:langID="1036" v:cal="0" v:val="VT4()"/>
				<v:cp v:nameU="StartDate" v:lbl="Date de début" v:prompt="" v:type="5" v:format="" v:sortKey="" v:invis="false"
						v:ask="false" v:langID="1036" v:cal="0"/>
				<v:cp v:nameU="EndDate" v:lbl="Date de fin" v:prompt="" v:type="5" v:format="" v:sortKey="" v:invis="false"
						v:ask="false" v:langID="1036" v:cal="0"/>
				<v:cp v:nameU="Status" v:lbl="État" v:prompt="" v:type="4"
						v:format=";Non commencé;En cours;Terminé;Différé;En attente d’une contribution" v:sortKey=""
						v:invis="false" v:ask="false" v:langID="1036" v:cal="0" v:val="VT4()"/>
			</v:custProps>
			<v:userDefs>
				<v:ud v:nameU="visVersion" v:prompt="" v:val="VT0(14):26"/>
				<v:ud v:nameU="DefaultWidth" v:prompt="" v:val="VT0(0.98425196850394):24"/>
				<v:ud v:nameU="DefaultHeight" v:prompt="" v:val="VT0(0.59055118110236):24"/>
				<v:ud v:nameU="ResizeTxtHeight" v:prompt="" v:val="VT0(0.59055118110236):24"/>
				<v:ud v:nameU="msvThemeColors" v:val="VT0(36):26"/>
				<v:ud v:nameU="msvThemeEffects" v:val="VT0(16):26"/>
			</v:userDefs>
			<v:textBlock v:margins="rect(2,2,2,2)" v:tabSpace="42.5197"/>
			<v:textRect cx="35.4331" cy="574.016" width="70.87" height="42.5197"/>
			<g id="shadow2-21" v:groupContext="shadow" v:shadowOffsetX="1.44" v:shadowOffsetY="-1.44" v:shadowType="1"
					transform="matrix(1,0,0,1,1.44,1.44)" class="st1">
				<rect x="0" y="552.756" width="70.8661" height="42.5197" class="st2"/>
			</g>
			<rect x="0" y="552.756" width="70.8661" height="42.5197" class="st3"/>
			<text x="15.96" y="576.42" class="st4" v:langID="1036"><v:paragraph v:horizAlign="1"/><v:tabList/>Interactions</text>		</g>
		<g id="shape3-26" v:mID="3" v:groupContext="shape" v:layerMember="1" transform="translate(184.252,-244.488)">
			<title>Lien dynamique</title>
			<v:userDefs>
				<v:ud v:nameU="msvThemeColors" v:val="VT0(36):26"/>
				<v:ud v:nameU="msvThemeEffects" v:val="VT0(16):26"/>
			</v:userDefs>
			<path d="M0 595.28 L21.26 595.28 L21.26 510.24 L50.53 510.24" class="st5"/>
		</g>
		<g id="shape6-33" v:mID="6" v:groupContext="shape" v:layerMember="1" transform="translate(184.252,-251.575)">
			<title>Lien dynamique.6</title>
			<v:userDefs>
				<v:ud v:nameU="msvThemeColors" v:val="VT0(36):26"/>
				<v:ud v:nameU="msvThemeEffects" v:val="VT0(16):26"/>
			</v:userDefs>
			<path d="M0 602.36 L50.53 602.36" class="st5"/>
		</g>
		<g id="shape7-39" v:mID="7" v:groupContext="shape" v:layerMember="1" transform="translate(184.252,-244.488)">
			<title>Lien dynamique.7</title>
			<v:userDefs>
				<v:ud v:nameU="msvThemeColors" v:val="VT0(36):26"/>
				<v:ud v:nameU="msvThemeEffects" v:val="VT0(16):26"/>
			</v:userDefs>
			<path d="M0 595.28 L21.26 595.28 L21.26 680.31 L50.53 680.31" class="st5"/>
		</g>
		<g id="shape8-45" v:mID="8" v:groupContext="shape" v:layerMember="0" transform="translate(651.969,-223.228)">
			<title>Processus.8</title>
			<desc>Collision</desc>
			<v:custProps>
				<v:cp v:nameU="Cost" v:lbl="Coût" v:prompt="" v:type="7" v:format="@" v:sortKey="" v:invis="false" v:ask="false"
						v:langID="1036" v:cal="0"/>
				<v:cp v:nameU="ProcessNumber" v:lbl="Numéro de processus" v:prompt="" v:type="2" v:format="" v:sortKey=""
						v:invis="false" v:ask="false" v:langID="1036" v:cal="0"/>
				<v:cp v:nameU="Owner" v:lbl="Propriétaire" v:prompt="" v:type="0" v:format="" v:sortKey="" v:invis="false"
						v:ask="false" v:langID="1036" v:cal="0"/>
				<v:cp v:nameU="Function" v:lbl="Fonction" v:prompt="" v:type="0" v:format="" v:sortKey="" v:invis="false"
						v:ask="false" v:langID="1036" v:cal="0" v:val="VT4()"/>
				<v:cp v:nameU="StartDate" v:lbl="Date de début" v:prompt="" v:type="5" v:format="" v:sortKey="" v:invis="false"
						v:ask="false" v:langID="1036" v:cal="0"/>
				<v:cp v:nameU="EndDate" v:lbl="Date de fin" v:prompt="" v:type="5" v:format="" v:sortKey="" v:invis="false"
						v:ask="false" v:langID="1036" v:cal="0"/>
				<v:cp v:nameU="Status" v:lbl="État" v:prompt="" v:type="4"
						v:format=";Non commencé;En cours;Terminé;Différé;En attente d’une contribution" v:sortKey=""
						v:invis="false" v:ask="false" v:langID="1036" v:cal="0" v:val="VT4()"/>
			</v:custProps>
			<v:userDefs>
				<v:ud v:nameU="visVersion" v:prompt="" v:val="VT0(14):26"/>
				<v:ud v:nameU="DefaultWidth" v:prompt="" v:val="VT0(0.98425196850394):24"/>
				<v:ud v:nameU="DefaultHeight" v:prompt="" v:val="VT0(0.59055118110236):24"/>
				<v:ud v:nameU="ResizeTxtHeight" v:prompt="" v:val="VT0(0.59055118110236):24"/>
				<v:ud v:nameU="msvThemeColors" v:val="VT0(36):26"/>
				<v:ud v:nameU="msvThemeEffects" v:val="VT0(16):26"/>
			</v:userDefs>
			<v:textBlock v:margins="rect(2,2,2,2)" v:tabSpace="42.5197"/>
			<v:textRect cx="35.4331" cy="574.016" width="70.87" height="42.5197"/>
			<g id="shadow8-46" v:groupContext="shadow" v:shadowOffsetX="1.44" v:shadowOffsetY="-1.44" v:shadowType="1"
					transform="matrix(1,0,0,1,1.44,1.44)" class="st1">
				<rect x="0" y="552.756" width="70.8661" height="42.5197" class="st2"/>
			</g>
			<rect x="0" y="552.756" width="70.8661" height="42.5197" class="st3"/>
			<text x="21.74" y="576.42" class="st4" v:langID="1036"><v:paragraph v:horizAlign="1"/><v:tabList/>Collision</text>		</g>
		<g id="shape11-51" v:mID="11" v:groupContext="shape" v:layerMember="0" transform="translate(462.047,-223.228)">
			<title>Processus.11</title>
			<desc>Deplacement</desc>
			<v:custProps>
				<v:cp v:nameU="Cost" v:lbl="Coût" v:prompt="" v:type="7" v:format="@" v:sortKey="" v:invis="false" v:ask="false"
						v:langID="1036" v:cal="0"/>
				<v:cp v:nameU="ProcessNumber" v:lbl="Numéro de processus" v:prompt="" v:type="2" v:format="" v:sortKey=""
						v:invis="false" v:ask="false" v:langID="1036" v:cal="0"/>
				<v:cp v:nameU="Owner" v:lbl="Propriétaire" v:prompt="" v:type="0" v:format="" v:sortKey="" v:invis="false"
						v:ask="false" v:langID="1036" v:cal="0"/>
				<v:cp v:nameU="Function" v:lbl="Fonction" v:prompt="" v:type="0" v:format="" v:sortKey="" v:invis="false"
						v:ask="false" v:langID="1036" v:cal="0" v:val="VT4()"/>
				<v:cp v:nameU="StartDate" v:lbl="Date de début" v:prompt="" v:type="5" v:format="" v:sortKey="" v:invis="false"
						v:ask="false" v:langID="1036" v:cal="0"/>
				<v:cp v:nameU="EndDate" v:lbl="Date de fin" v:prompt="" v:type="5" v:format="" v:sortKey="" v:invis="false"
						v:ask="false" v:langID="1036" v:cal="0"/>
				<v:cp v:nameU="Status" v:lbl="État" v:prompt="" v:type="4"
						v:format=";Non commencé;En cours;Terminé;Différé;En attente d’une contribution" v:sortKey=""
						v:invis="false" v:ask="false" v:langID="1036" v:cal="0" v:val="VT4()"/>
			</v:custProps>
			<v:userDefs>
				<v:ud v:nameU="visVersion" v:prompt="" v:val="VT0(14):26"/>
				<v:ud v:nameU="DefaultWidth" v:prompt="" v:val="VT0(0.98425196850394):24"/>
				<v:ud v:nameU="DefaultHeight" v:prompt="" v:val="VT0(0.59055118110236):24"/>
				<v:ud v:nameU="ResizeTxtHeight" v:prompt="" v:val="VT0(0.59055118110236):24"/>
				<v:ud v:nameU="msvThemeColors" v:val="VT0(36):26"/>
				<v:ud v:nameU="msvThemeEffects" v:val="VT0(16):26"/>
			</v:userDefs>
			<v:textBlock v:margins="rect(2,2,2,2)" v:tabSpace="42.5197"/>
			<v:textRect cx="35.4331" cy="574.016" width="70.87" height="42.5197"/>
			<g id="shadow11-52" v:groupContext="shadow" v:shadowOffsetX="1.44" v:shadowOffsetY="-1.44" v:shadowType="1"
					transform="matrix(1,0,0,1,1.44,1.44)" class="st1">
				<rect x="0" y="552.756" width="70.8661" height="42.5197" class="st2"/>
			</g>
			<rect x="0" y="552.756" width="70.8661" height="42.5197" class="st3"/>
			<text x="13.74" y="576.42" class="st4" v:langID="1036"><v:paragraph v:horizAlign="1"/><v:tabList/>Deplacement</text>		</g>
		<g id="shape12-57" v:mID="12" v:groupContext="shape" v:layerMember="1" transform="translate(532.913,-237.402)">
			<title>Lien dynamique.12</title>
			<v:userDefs>
				<v:ud v:nameU="msvThemeColors" v:val="VT0(36):26"/>
				<v:ud v:nameU="msvThemeEffects" v:val="VT0(16):26"/>
			</v:userDefs>
			<path d="M0 588.19 L112.9 588.19" class="st5"/>
		</g>
		<g id="shape13-63" v:mID="13" v:groupContext="shape" v:layerMember="1" transform="translate(311.811,-237.402)">
			<title>Lien dynamique.13</title>
			<v:userDefs>
				<v:ud v:nameU="msvThemeColors" v:val="VT0(36):26"/>
				<v:ud v:nameU="msvThemeEffects" v:val="VT0(16):26"/>
			</v:userDefs>
			<path d="M0 588.19 L144.08 588.19" class="st5"/>
		</g>
		<g id="shape14-69" v:mID="14" v:groupContext="shape" v:layerMember="0" transform="translate(552.756,-308.268)">
			<title>Processus.14</title>
			<desc>Verification</desc>
			<v:custProps>
				<v:cp v:nameU="Cost" v:lbl="Coût" v:prompt="" v:type="7" v:format="@" v:sortKey="" v:invis="false" v:ask="false"
						v:langID="1036" v:cal="0"/>
				<v:cp v:nameU="ProcessNumber" v:lbl="Numéro de processus" v:prompt="" v:type="2" v:format="" v:sortKey=""
						v:invis="false" v:ask="false" v:langID="1036" v:cal="0"/>
				<v:cp v:nameU="Owner" v:lbl="Propriétaire" v:prompt="" v:type="0" v:format="" v:sortKey="" v:invis="false"
						v:ask="false" v:langID="1036" v:cal="0"/>
				<v:cp v:nameU="Function" v:lbl="Fonction" v:prompt="" v:type="0" v:format="" v:sortKey="" v:invis="false"
						v:ask="false" v:langID="1036" v:cal="0" v:val="VT4()"/>
				<v:cp v:nameU="StartDate" v:lbl="Date de début" v:prompt="" v:type="5" v:format="" v:sortKey="" v:invis="false"
						v:ask="false" v:langID="1036" v:cal="0"/>
				<v:cp v:nameU="EndDate" v:lbl="Date de fin" v:prompt="" v:type="5" v:format="" v:sortKey="" v:invis="false"
						v:ask="false" v:langID="1036" v:cal="0"/>
				<v:cp v:nameU="Status" v:lbl="État" v:prompt="" v:type="4"
						v:format=";Non commencé;En cours;Terminé;Différé;En attente d’une contribution" v:sortKey=""
						v:invis="false" v:ask="false" v:langID="1036" v:cal="0" v:val="VT4()"/>
			</v:custProps>
			<v:userDefs>
				<v:ud v:nameU="visVersion" v:prompt="" v:val="VT0(14):26"/>
				<v:ud v:nameU="DefaultWidth" v:prompt="" v:val="VT0(0.98425196850394):24"/>
				<v:ud v:nameU="DefaultHeight" v:prompt="" v:val="VT0(0.59055118110236):24"/>
				<v:ud v:nameU="ResizeTxtHeight" v:prompt="" v:val="VT0(0.59055118110236):24"/>
				<v:ud v:nameU="msvThemeColors" v:val="VT0(36):26"/>
				<v:ud v:nameU="msvThemeEffects" v:val="VT0(16):26"/>
			</v:userDefs>
			<v:textBlock v:margins="rect(2,2,2,2)" v:tabSpace="42.5197"/>
			<v:textRect cx="35.4331" cy="574.016" width="70.87" height="42.5197"/>
			<g id="shadow14-70" v:groupContext="shadow" v:shadowOffsetX="1.44" v:shadowOffsetY="-1.44" v:shadowType="1"
					transform="matrix(1,0,0,1,1.44,1.44)" class="st1">
				<rect x="0" y="552.756" width="70.8661" height="42.5197" class="st2"/>
			</g>
			<rect x="0" y="552.756" width="70.8661" height="42.5197" class="st3"/>
			<text x="16.65" y="576.42" class="st4" v:langID="1036"><v:paragraph v:horizAlign="1"/><v:tabList/>Verification</text>		</g>
		<g id="shape15-75" v:mID="15" v:groupContext="shape" v:layerMember="0" transform="translate(552.756,-251.575)">
			<title>Processus.15</title>
			<desc>interpretation</desc>
			<v:custProps>
				<v:cp v:nameU="Cost" v:lbl="Coût" v:prompt="" v:type="7" v:format="@" v:sortKey="" v:invis="false" v:ask="false"
						v:langID="1036" v:cal="0"/>
				<v:cp v:nameU="ProcessNumber" v:lbl="Numéro de processus" v:prompt="" v:type="2" v:format="" v:sortKey=""
						v:invis="false" v:ask="false" v:langID="1036" v:cal="0"/>
				<v:cp v:nameU="Owner" v:lbl="Propriétaire" v:prompt="" v:type="0" v:format="" v:sortKey="" v:invis="false"
						v:ask="false" v:langID="1036" v:cal="0"/>
				<v:cp v:nameU="Function" v:lbl="Fonction" v:prompt="" v:type="0" v:format="" v:sortKey="" v:invis="false"
						v:ask="false" v:langID="1036" v:cal="0" v:val="VT4()"/>
				<v:cp v:nameU="StartDate" v:lbl="Date de début" v:prompt="" v:type="5" v:format="" v:sortKey="" v:invis="false"
						v:ask="false" v:langID="1036" v:cal="0"/>
				<v:cp v:nameU="EndDate" v:lbl="Date de fin" v:prompt="" v:type="5" v:format="" v:sortKey="" v:invis="false"
						v:ask="false" v:langID="1036" v:cal="0"/>
				<v:cp v:nameU="Status" v:lbl="État" v:prompt="" v:type="4"
						v:format=";Non commencé;En cours;Terminé;Différé;En attente d’une contribution" v:sortKey=""
						v:invis="false" v:ask="false" v:langID="1036" v:cal="0" v:val="VT4()"/>
			</v:custProps>
			<v:userDefs>
				<v:ud v:nameU="visVersion" v:prompt="" v:val="VT0(14):26"/>
				<v:ud v:nameU="DefaultWidth" v:prompt="" v:val="VT0(0.98425196850394):24"/>
				<v:ud v:nameU="DefaultHeight" v:prompt="" v:val="VT0(0.59055118110236):24"/>
				<v:ud v:nameU="ResizeTxtHeight" v:prompt="" v:val="VT0(0.59055118110236):24"/>
				<v:ud v:nameU="msvThemeColors" v:val="VT0(36):26"/>
				<v:ud v:nameU="msvThemeEffects" v:val="VT0(16):26"/>
			</v:userDefs>
			<v:textBlock v:margins="rect(2,2,2,2)" v:tabSpace="42.5197"/>
			<v:textRect cx="35.4331" cy="574.016" width="70.87" height="42.5197"/>
			<g id="shadow15-76" v:groupContext="shadow" v:shadowOffsetX="1.44" v:shadowOffsetY="-1.44" v:shadowType="1"
					transform="matrix(1,0,0,1,1.44,1.44)" class="st1">
				<rect x="0" y="552.756" width="70.8661" height="42.5197" class="st2"/>
			</g>
			<rect x="0" y="552.756" width="70.8661" height="42.5197" class="st3"/>
			<text x="12.48" y="576.42" class="st4" v:langID="1036"><v:paragraph v:horizAlign="1"/><v:tabList/>interpretation</text>		</g>
		<g id="shape16-81" v:mID="16" v:groupContext="shape" v:layerMember="0" transform="translate(552.756,-364.961)">
			<title>Processus.16</title>
			<desc>Saisie</desc>
			<v:custProps>
				<v:cp v:nameU="Cost" v:lbl="Coût" v:prompt="" v:type="7" v:format="@" v:sortKey="" v:invis="false" v:ask="false"
						v:langID="1036" v:cal="0"/>
				<v:cp v:nameU="ProcessNumber" v:lbl="Numéro de processus" v:prompt="" v:type="2" v:format="" v:sortKey=""
						v:invis="false" v:ask="false" v:langID="1036" v:cal="0"/>
				<v:cp v:nameU="Owner" v:lbl="Propriétaire" v:prompt="" v:type="0" v:format="" v:sortKey="" v:invis="false"
						v:ask="false" v:langID="1036" v:cal="0"/>
				<v:cp v:nameU="Function" v:lbl="Fonction" v:prompt="" v:type="0" v:format="" v:sortKey="" v:invis="false"
						v:ask="false" v:langID="1036" v:cal="0" v:val="VT4()"/>
				<v:cp v:nameU="StartDate" v:lbl="Date de début" v:prompt="" v:type="5" v:format="" v:sortKey="" v:invis="false"
						v:ask="false" v:langID="1036" v:cal="0"/>
				<v:cp v:nameU="EndDate" v:lbl="Date de fin" v:prompt="" v:type="5" v:format="" v:sortKey="" v:invis="false"
						v:ask="false" v:langID="1036" v:cal="0"/>
				<v:cp v:nameU="Status" v:lbl="État" v:prompt="" v:type="4"
						v:format=";Non commencé;En cours;Terminé;Différé;En attente d’une contribution" v:sortKey=""
						v:invis="false" v:ask="false" v:langID="1036" v:cal="0" v:val="VT4()"/>
			</v:custProps>
			<v:userDefs>
				<v:ud v:nameU="visVersion" v:prompt="" v:val="VT0(14):26"/>
				<v:ud v:nameU="DefaultWidth" v:prompt="" v:val="VT0(0.98425196850394):24"/>
				<v:ud v:nameU="DefaultHeight" v:prompt="" v:val="VT0(0.59055118110236):24"/>
				<v:ud v:nameU="ResizeTxtHeight" v:prompt="" v:val="VT0(0.59055118110236):24"/>
				<v:ud v:nameU="msvThemeColors" v:val="VT0(36):26"/>
				<v:ud v:nameU="msvThemeEffects" v:val="VT0(16):26"/>
			</v:userDefs>
			<v:textBlock v:margins="rect(2,2,2,2)" v:tabSpace="42.5197"/>
			<v:textRect cx="35.4331" cy="574.016" width="70.87" height="42.5197"/>
			<g id="shadow16-82" v:groupContext="shadow" v:shadowOffsetX="1.44" v:shadowOffsetY="-1.44" v:shadowType="1"
					transform="matrix(1,0,0,1,1.44,1.44)" class="st1">
				<rect x="0" y="552.756" width="70.8661" height="42.5197" class="st2"/>
			</g>
			<rect x="0" y="552.756" width="70.8661" height="42.5197" class="st3"/>
			<text x="26.29" y="576.42" class="st4" v:langID="1036"><v:paragraph v:horizAlign="1"/><v:tabList/>Saisie</text>		</g>
		<g id="shape17-87" v:mID="17" v:groupContext="shape" v:layerMember="1" transform="translate(311.811,-329.528)">
			<title>Lien dynamique.17</title>
			<v:userDefs>
				<v:ud v:nameU="msvThemeColors" v:val="VT0(36):26"/>
				<v:ud v:nameU="msvThemeEffects" v:val="VT0(16):26"/>
			</v:userDefs>
			<path d="M0 595.28 L212.6 595.28 L212.6 538.58 L234.78 538.58" class="st5"/>
		</g>
		<g id="shape18-93" v:mID="18" v:groupContext="shape" v:layerMember="1" transform="translate(311.811,-322.441)">
			<title>Lien dynamique.18</title>
			<v:userDefs>
				<v:ud v:nameU="msvThemeColors" v:val="VT0(36):26"/>
				<v:ud v:nameU="msvThemeEffects" v:val="VT0(16):26"/>
			</v:userDefs>
			<path d="M0 588.19 L170.08 588.19 L234.78 588.19" class="st5"/>
		</g>
		<g id="shape19-99" v:mID="19" v:groupContext="shape" v:layerMember="1" transform="translate(311.811,-329.528)">
			<title>Lien dynamique.19</title>
			<v:userDefs>
				<v:ud v:nameU="msvThemeColors" v:val="VT0(36):26"/>
				<v:ud v:nameU="msvThemeEffects" v:val="VT0(16):26"/>
			</v:userDefs>
			<path d="M0 595.28 L212.6 595.28 L212.6 651.97 L234.78 651.97" class="st5"/>
		</g>
		<g id="shape20-105" v:mID="20" v:groupContext="shape" v:layerMember="0" transform="translate(462.047,-95.6693)">
			<title>Processus.20</title>
			<desc>Écriture Tableau</desc>
			<v:custProps>
				<v:cp v:nameU="Cost" v:lbl="Coût" v:prompt="" v:type="7" v:format="@" v:sortKey="" v:invis="false" v:ask="false"
						v:langID="1036" v:cal="0"/>
				<v:cp v:nameU="ProcessNumber" v:lbl="Numéro de processus" v:prompt="" v:type="2" v:format="" v:sortKey=""
						v:invis="false" v:ask="false" v:langID="1036" v:cal="0"/>
				<v:cp v:nameU="Owner" v:lbl="Propriétaire" v:prompt="" v:type="0" v:format="" v:sortKey="" v:invis="false"
						v:ask="false" v:langID="1036" v:cal="0"/>
				<v:cp v:nameU="Function" v:lbl="Fonction" v:prompt="" v:type="0" v:format="" v:sortKey="" v:invis="false"
						v:ask="false" v:langID="1036" v:cal="0" v:val="VT4()"/>
				<v:cp v:nameU="StartDate" v:lbl="Date de début" v:prompt="" v:type="5" v:format="" v:sortKey="" v:invis="false"
						v:ask="false" v:langID="1036" v:cal="0"/>
				<v:cp v:nameU="EndDate" v:lbl="Date de fin" v:prompt="" v:type="5" v:format="" v:sortKey="" v:invis="false"
						v:ask="false" v:langID="1036" v:cal="0"/>
				<v:cp v:nameU="Status" v:lbl="État" v:prompt="" v:type="4"
						v:format=";Non commencé;En cours;Terminé;Différé;En attente d’une contribution" v:sortKey=""
						v:invis="false" v:ask="false" v:langID="1036" v:cal="0" v:val="VT4()"/>
			</v:custProps>
			<v:userDefs>
				<v:ud v:nameU="visVersion" v:prompt="" v:val="VT0(14):26"/>
				<v:ud v:nameU="DefaultWidth" v:prompt="" v:val="VT0(0.98425196850394):24"/>
				<v:ud v:nameU="DefaultHeight" v:prompt="" v:val="VT0(0.59055118110236):24"/>
				<v:ud v:nameU="ResizeTxtHeight" v:prompt="" v:val="VT0(0.59055118110236):24"/>
				<v:ud v:nameU="msvThemeColors" v:val="VT0(36):26"/>
				<v:ud v:nameU="msvThemeEffects" v:val="VT0(16):26"/>
			</v:userDefs>
			<v:textBlock v:margins="rect(2,2,2,2)" v:tabSpace="42.5197"/>
			<v:textRect cx="35.4331" cy="574.016" width="70.87" height="42.5197"/>
			<g id="shadow20-106" v:groupContext="shadow" v:shadowOffsetX="1.44" v:shadowOffsetY="-1.44" v:shadowType="1"
					transform="matrix(1,0,0,1,1.44,1.44)" class="st1">
				<rect x="0" y="552.756" width="70.8661" height="42.5197" class="st2"/>
			</g>
			<rect x="0" y="552.756" width="70.8661" height="42.5197" class="st3"/>
			<text x="8.85" y="576.42" class="st4" v:langID="1036"><v:paragraph v:horizAlign="1"/><v:tabList/>Écriture Tableau</text>		</g>
		<g id="shape21-111" v:mID="21" v:groupContext="shape" v:layerMember="1" transform="translate(311.811,-244.488)">
			<title>Lien dynamique.21</title>
			<v:userDefs>
				<v:ud v:nameU="msvThemeColors" v:val="VT0(36):26"/>
				<v:ud v:nameU="msvThemeEffects" v:val="VT0(16):26"/>
			</v:userDefs>
			<path d="M0 595.28 L99.21 595.28 L99.21 722.83 L144.08 722.83" class="st5"/>
		</g>
		<g id="shape22-117" v:mID="22" v:groupContext="shape" v:layerMember="0" transform="translate(462.047,-159.449)">
			<title>Processus.22</title>
			<desc>Ajout/Supression Cape</desc>
			<v:custProps>
				<v:cp v:nameU="Cost" v:lbl="Coût" v:prompt="" v:type="7" v:format="@" v:sortKey="" v:invis="false" v:ask="false"
						v:langID="1036" v:cal="0"/>
				<v:cp v:nameU="ProcessNumber" v:lbl="Numéro de processus" v:prompt="" v:type="2" v:format="" v:sortKey=""
						v:invis="false" v:ask="false" v:langID="1036" v:cal="0"/>
				<v:cp v:nameU="Owner" v:lbl="Propriétaire" v:prompt="" v:type="0" v:format="" v:sortKey="" v:invis="false"
						v:ask="false" v:langID="1036" v:cal="0"/>
				<v:cp v:nameU="Function" v:lbl="Fonction" v:prompt="" v:type="0" v:format="" v:sortKey="" v:invis="false"
						v:ask="false" v:langID="1036" v:cal="0" v:val="VT4()"/>
				<v:cp v:nameU="StartDate" v:lbl="Date de début" v:prompt="" v:type="5" v:format="" v:sortKey="" v:invis="false"
						v:ask="false" v:langID="1036" v:cal="0"/>
				<v:cp v:nameU="EndDate" v:lbl="Date de fin" v:prompt="" v:type="5" v:format="" v:sortKey="" v:invis="false"
						v:ask="false" v:langID="1036" v:cal="0"/>
				<v:cp v:nameU="Status" v:lbl="État" v:prompt="" v:type="4"
						v:format=";Non commencé;En cours;Terminé;Différé;En attente d’une contribution" v:sortKey=""
						v:invis="false" v:ask="false" v:langID="1036" v:cal="0" v:val="VT4()"/>
			</v:custProps>
			<v:userDefs>
				<v:ud v:nameU="visVersion" v:prompt="" v:val="VT0(14):26"/>
				<v:ud v:nameU="DefaultWidth" v:prompt="" v:val="VT0(0.98425196850394):24"/>
				<v:ud v:nameU="DefaultHeight" v:prompt="" v:val="VT0(0.59055118110236):24"/>
				<v:ud v:nameU="ResizeTxtHeight" v:prompt="" v:val="VT0(0.59055118110236):24"/>
				<v:ud v:nameU="msvThemeColors" v:val="VT0(36):26"/>
				<v:ud v:nameU="msvThemeEffects" v:val="VT0(16):26"/>
			</v:userDefs>
			<v:textBlock v:margins="rect(2,2,2,2)" v:tabSpace="42.5197"/>
			<v:textRect cx="35.4331" cy="574.016" width="70.87" height="42.5197"/>
			<g id="shadow22-118" v:groupContext="shadow" v:shadowOffsetX="1.44" v:shadowOffsetY="-1.44" v:shadowType="1"
					transform="matrix(1,0,0,1,1.44,1.44)" class="st1">
				<rect x="0" y="552.756" width="70.8661" height="42.5197" class="st2"/>
			</g>
			<rect x="0" y="552.756" width="70.8661" height="42.5197" class="st3"/>
			<text x="7.38" y="571.62" class="st4" v:langID="1036"><v:paragraph v:horizAlign="1"/><v:tabList/>Ajout/Supression<v:newlineChar/><tspan
						x="27.29" dy="1.2em" class="st7">Cape</tspan></text>		</g>
		<g id="shape23-124" v:mID="23" v:groupContext="shape" v:layerMember="1" transform="translate(311.811,-244.488)">
			<title>Lien dynamique.23</title>
			<v:userDefs>
				<v:ud v:nameU="msvThemeColors" v:val="VT0(36):26"/>
				<v:ud v:nameU="msvThemeEffects" v:val="VT0(16):26"/>
			</v:userDefs>
			<path d="M0 595.28 L99.21 595.28 L99.21 659.06 L144.08 659.06" class="st5"/>
		</g>
		<g id="shape24-130" v:mID="24" v:groupContext="shape" v:layerMember="0" transform="translate(240.945,-379.134)">
			<title>Processus.24</title>
			<desc>Initialisation</desc>
			<v:custProps>
				<v:cp v:nameU="Cost" v:lbl="Coût" v:prompt="" v:type="7" v:format="@" v:sortKey="" v:invis="false" v:ask="false"
						v:langID="1036" v:cal="0"/>
				<v:cp v:nameU="ProcessNumber" v:lbl="Numéro de processus" v:prompt="" v:type="2" v:format="" v:sortKey=""
						v:invis="false" v:ask="false" v:langID="1036" v:cal="0"/>
				<v:cp v:nameU="Owner" v:lbl="Propriétaire" v:prompt="" v:type="0" v:format="" v:sortKey="" v:invis="false"
						v:ask="false" v:langID="1036" v:cal="0"/>
				<v:cp v:nameU="Function" v:lbl="Fonction" v:prompt="" v:type="0" v:format="" v:sortKey="" v:invis="false"
						v:ask="false" v:langID="1036" v:cal="0" v:val="VT4()"/>
				<v:cp v:nameU="StartDate" v:lbl="Date de début" v:prompt="" v:type="5" v:format="" v:sortKey="" v:invis="false"
						v:ask="false" v:langID="1036" v:cal="0"/>
				<v:cp v:nameU="EndDate" v:lbl="Date de fin" v:prompt="" v:type="5" v:format="" v:sortKey="" v:invis="false"
						v:ask="false" v:langID="1036" v:cal="0"/>
				<v:cp v:nameU="Status" v:lbl="État" v:prompt="" v:type="4"
						v:format=";Non commencé;En cours;Terminé;Différé;En attente d’une contribution" v:sortKey=""
						v:invis="false" v:ask="false" v:langID="1036" v:cal="0" v:val="VT4()"/>
			</v:custProps>
			<v:userDefs>
				<v:ud v:nameU="visVersion" v:prompt="" v:val="VT0(14):26"/>
				<v:ud v:nameU="DefaultWidth" v:prompt="" v:val="VT0(0.98425196850394):24"/>
				<v:ud v:nameU="DefaultHeight" v:prompt="" v:val="VT0(0.59055118110236):24"/>
				<v:ud v:nameU="ResizeTxtHeight" v:prompt="" v:val="VT0(0.59055118110236):24"/>
				<v:ud v:nameU="msvThemeColors" v:val="VT0(36):26"/>
				<v:ud v:nameU="msvThemeEffects" v:val="VT0(16):26"/>
			</v:userDefs>
			<v:textBlock v:margins="rect(2,2,2,2)" v:tabSpace="42.5197"/>
			<v:textRect cx="35.4331" cy="574.016" width="70.87" height="42.5197"/>
			<g id="shadow24-131" v:groupContext="shadow" v:shadowOffsetX="1.44" v:shadowOffsetY="-1.44" v:shadowType="1"
					transform="matrix(1,0,0,1,1.44,1.44)" class="st1">
				<rect x="0" y="552.756" width="70.8661" height="42.5197" class="st2"/>
			</g>
			<rect x="0" y="552.756" width="70.8661" height="42.5197" class="st3"/>
			<text x="15.45" y="576.42" class="st4" v:langID="1036"><v:paragraph v:horizAlign="1"/><v:tabList/>Initialisation</text>		</g>
		<g id="shape25-136" v:mID="25" v:groupContext="shape" v:layerMember="1" transform="translate(184.252,-244.488)">
			<title>Lien dynamique.25</title>
			<v:userDefs>
				<v:ud v:nameU="msvThemeColors" v:val="VT0(36):26"/>
				<v:ud v:nameU="msvThemeEffects" v:val="VT0(16):26"/>
			</v:userDefs>
			<path d="M0 595.28 L21.26 595.28 L21.26 439.37 L50.53 439.37" class="st5"/>
		</g>
		<g id="shape26-142" v:mID="26" v:groupContext="shape" v:layerMember="0" transform="translate(354.331,-400.394)">
			<title>Processus.26</title>
			<desc>fichier</desc>
			<v:custProps>
				<v:cp v:nameU="Cost" v:lbl="Coût" v:prompt="" v:type="7" v:format="@" v:sortKey="" v:invis="false" v:ask="false"
						v:langID="1036" v:cal="0"/>
				<v:cp v:nameU="ProcessNumber" v:lbl="Numéro de processus" v:prompt="" v:type="2" v:format="" v:sortKey=""
						v:invis="false" v:ask="false" v:langID="1036" v:cal="0"/>
				<v:cp v:nameU="Owner" v:lbl="Propriétaire" v:prompt="" v:type="0" v:format="" v:sortKey="" v:invis="false"
						v:ask="false" v:langID="1036" v:cal="0"/>
				<v:cp v:nameU="Function" v:lbl="Fonction" v:prompt="" v:type="0" v:format="" v:sortKey="" v:invis="false"
						v:ask="false" v:langID="1036" v:cal="0" v:val="VT4()"/>
				<v:cp v:nameU="StartDate" v:lbl="Date de début" v:prompt="" v:type="5" v:format="" v:sortKey="" v:invis="false"
						v:ask="false" v:langID="1036" v:cal="0"/>
				<v:cp v:nameU="EndDate" v:lbl="Date de fin" v:prompt="" v:type="5" v:format="" v:sortKey="" v:invis="false"
						v:ask="false" v:langID="1036" v:cal="0"/>
				<v:cp v:nameU="Status" v:lbl="État" v:prompt="" v:type="4"
						v:format=";Non commencé;En cours;Terminé;Différé;En attente d’une contribution" v:sortKey=""
						v:invis="false" v:ask="false" v:langID="1036" v:cal="0" v:val="VT4()"/>
			</v:custProps>
			<v:userDefs>
				<v:ud v:nameU="visVersion" v:prompt="" v:val="VT0(14):26"/>
				<v:ud v:nameU="DefaultWidth" v:prompt="" v:val="VT0(0.98425196850394):24"/>
				<v:ud v:nameU="DefaultHeight" v:prompt="" v:val="VT0(0.59055118110236):24"/>
				<v:ud v:nameU="ResizeTxtHeight" v:prompt="" v:val="VT0(0.59055118110236):24"/>
				<v:ud v:nameU="msvThemeColors" v:val="VT0(36):26"/>
				<v:ud v:nameU="msvThemeEffects" v:val="VT0(16):26"/>
			</v:userDefs>
			<v:textBlock v:margins="rect(2,2,2,2)" v:tabSpace="42.5197"/>
			<v:textRect cx="35.4331" cy="574.016" width="70.87" height="42.5197"/>
			<g id="shadow26-143" v:groupContext="shadow" v:shadowOffsetX="1.44" v:shadowOffsetY="-1.44" v:shadowType="1"
					transform="matrix(1,0,0,1,1.44,1.44)" class="st1">
				<rect x="0" y="552.756" width="70.8661" height="42.5197" class="st2"/>
			</g>
			<rect x="0" y="552.756" width="70.8661" height="42.5197" class="st3"/>
			<text x="26.1" y="576.42" class="st4" v:langID="1036"><v:paragraph v:horizAlign="1"/><v:tabList/>fichier</text>		</g>
		<g id="shape27-148" v:mID="27" v:groupContext="shape" v:layerMember="0" transform="translate(462.047,-400.394)">
			<title>Processus.27</title>
			<desc>Stockage dans tableau</desc>
			<v:custProps>
				<v:cp v:nameU="Cost" v:lbl="Coût" v:prompt="" v:type="7" v:format="@" v:sortKey="" v:invis="false" v:ask="false"
						v:langID="1036" v:cal="0"/>
				<v:cp v:nameU="ProcessNumber" v:lbl="Numéro de processus" v:prompt="" v:type="2" v:format="" v:sortKey=""
						v:invis="false" v:ask="false" v:langID="1036" v:cal="0"/>
				<v:cp v:nameU="Owner" v:lbl="Propriétaire" v:prompt="" v:type="0" v:format="" v:sortKey="" v:invis="false"
						v:ask="false" v:langID="1036" v:cal="0"/>
				<v:cp v:nameU="Function" v:lbl="Fonction" v:prompt="" v:type="0" v:format="" v:sortKey="" v:invis="false"
						v:ask="false" v:langID="1036" v:cal="0" v:val="VT4()"/>
				<v:cp v:nameU="StartDate" v:lbl="Date de début" v:prompt="" v:type="5" v:format="" v:sortKey="" v:invis="false"
						v:ask="false" v:langID="1036" v:cal="0"/>
				<v:cp v:nameU="EndDate" v:lbl="Date de fin" v:prompt="" v:type="5" v:format="" v:sortKey="" v:invis="false"
						v:ask="false" v:langID="1036" v:cal="0"/>
				<v:cp v:nameU="Status" v:lbl="État" v:prompt="" v:type="4"
						v:format=";Non commencé;En cours;Terminé;Différé;En attente d’une contribution" v:sortKey=""
						v:invis="false" v:ask="false" v:langID="1036" v:cal="0" v:val="VT4()"/>
			</v:custProps>
			<v:userDefs>
				<v:ud v:nameU="visVersion" v:prompt="" v:val="VT0(14):26"/>
				<v:ud v:nameU="DefaultWidth" v:prompt="" v:val="VT0(0.98425196850394):24"/>
				<v:ud v:nameU="DefaultHeight" v:prompt="" v:val="VT0(0.59055118110236):24"/>
				<v:ud v:nameU="ResizeTxtHeight" v:prompt="" v:val="VT0(0.59055118110236):24"/>
				<v:ud v:nameU="msvThemeColors" v:val="VT0(36):26"/>
				<v:ud v:nameU="msvThemeEffects" v:val="VT0(16):26"/>
			</v:userDefs>
			<v:textBlock v:margins="rect(2,2,2,2)" v:tabSpace="42.5197"/>
			<v:textRect cx="35.4331" cy="574.016" width="70.87" height="42.5197"/>
			<g id="shadow27-149" v:groupContext="shadow" v:shadowOffsetX="1.44" v:shadowOffsetY="-1.44" v:shadowType="1"
					transform="matrix(1,0,0,1,1.44,1.44)" class="st1">
				<rect x="0" y="552.756" width="70.8661" height="42.5197" class="st2"/>
			</g>
			<rect x="0" y="552.756" width="70.8661" height="42.5197" class="st3"/>
			<text x="12.26" y="571.62" class="st4" v:langID="1036"><v:paragraph v:horizAlign="1"/><v:tabList/>Stockage dans <tspan
						x="23.15" dy="1.2em" class="st7">tableau</tspan></text>		</g>
		<g id="shape28-155" v:mID="28" v:groupContext="shape" v:layerMember="0" transform="translate(354.331,-524.409)">
			<title>Processus.28</title>
			<desc>Personnalisation joueurs</desc>
			<v:custProps>
				<v:cp v:nameU="Cost" v:lbl="Coût" v:prompt="" v:type="7" v:format="@" v:sortKey="" v:invis="false" v:ask="false"
						v:langID="1036" v:cal="0"/>
				<v:cp v:nameU="ProcessNumber" v:lbl="Numéro de processus" v:prompt="" v:type="2" v:format="" v:sortKey=""
						v:invis="false" v:ask="false" v:langID="1036" v:cal="0"/>
				<v:cp v:nameU="Owner" v:lbl="Propriétaire" v:prompt="" v:type="0" v:format="" v:sortKey="" v:invis="false"
						v:ask="false" v:langID="1036" v:cal="0"/>
				<v:cp v:nameU="Function" v:lbl="Fonction" v:prompt="" v:type="0" v:format="" v:sortKey="" v:invis="false"
						v:ask="false" v:langID="1036" v:cal="0" v:val="VT4()"/>
				<v:cp v:nameU="StartDate" v:lbl="Date de début" v:prompt="" v:type="5" v:format="" v:sortKey="" v:invis="false"
						v:ask="false" v:langID="1036" v:cal="0"/>
				<v:cp v:nameU="EndDate" v:lbl="Date de fin" v:prompt="" v:type="5" v:format="" v:sortKey="" v:invis="false"
						v:ask="false" v:langID="1036" v:cal="0"/>
				<v:cp v:nameU="Status" v:lbl="État" v:prompt="" v:type="4"
						v:format=";Non commencé;En cours;Terminé;Différé;En attente d’une contribution" v:sortKey=""
						v:invis="false" v:ask="false" v:langID="1036" v:cal="0" v:val="VT4()"/>
			</v:custProps>
			<v:userDefs>
				<v:ud v:nameU="visVersion" v:prompt="" v:val="VT0(14):26"/>
				<v:ud v:nameU="DefaultWidth" v:prompt="" v:val="VT0(0.98425196850394):24"/>
				<v:ud v:nameU="DefaultHeight" v:prompt="" v:val="VT0(0.59055118110236):24"/>
				<v:ud v:nameU="ResizeTxtHeight" v:prompt="" v:val="VT0(0.59055118110236):24"/>
				<v:ud v:nameU="msvThemeColors" v:val="VT0(36):26"/>
				<v:ud v:nameU="msvThemeEffects" v:val="VT0(16):26"/>
			</v:userDefs>
			<v:textBlock v:margins="rect(2,2,2,2)" v:tabSpace="42.5197"/>
			<v:textRect cx="35.4331" cy="574.016" width="70.87" height="42.5197"/>
			<g id="shadow28-156" v:groupContext="shadow" v:shadowOffsetX="1.44" v:shadowOffsetY="-1.44" v:shadowType="1"
					transform="matrix(1,0,0,1,1.44,1.44)" class="st1">
				<rect x="0" y="552.756" width="70.8661" height="42.5197" class="st2"/>
			</g>
			<rect x="0" y="552.756" width="70.8661" height="42.5197" class="st3"/>
			<text x="8.4" y="571.62" class="st4" v:langID="1036"><v:paragraph v:horizAlign="1"/><v:tabList/>Personnalisation <tspan
						x="23.21" dy="1.2em" class="st7">joueurs</tspan></text>		</g>
		<g id="shape29-162" v:mID="29" v:groupContext="shape" v:layerMember="1" transform="translate(311.811,-400.394)">
			<title>Lien dynamique.29</title>
			<v:userDefs>
				<v:ud v:nameU="msvThemeColors" v:val="VT0(36):26"/>
				<v:ud v:nameU="msvThemeEffects" v:val="VT0(16):26"/>
			</v:userDefs>
			<path d="M0 595.28 L21.26 595.28 L21.26 450 L36.36 450" class="st5"/>
		</g>
		<g id="shape30-168" v:mID="30" v:groupContext="shape" v:layerMember="1" transform="translate(311.811,-400.394)">
			<title>Lien dynamique.30</title>
			<v:userDefs>
				<v:ud v:nameU="msvThemeColors" v:val="VT0(36):26"/>
				<v:ud v:nameU="msvThemeEffects" v:val="VT0(16):26"/>
			</v:userDefs>
			<path d="M0 595.28 L21.26 595.28 L21.26 574.02 L36.36 574.02" class="st5"/>
		</g>
		<g id="shape31-174" v:mID="31" v:groupContext="shape" v:layerMember="1" transform="translate(425.197,-414.567)">
			<title>Lien dynamique.31</title>
			<v:userDefs>
				<v:ud v:nameU="msvThemeColors" v:val="VT0(36):26"/>
				<v:ud v:nameU="msvThemeEffects" v:val="VT0(16):26"/>
			</v:userDefs>
			<path d="M0 588.19 L30.69 588.19" class="st5"/>
		</g>
		<g id="shape32-180" v:mID="32" v:groupContext="shape" v:layerMember="0" transform="translate(354.331,-462.402)">
			<title>Processus.32</title>
			<desc>Choix mode de jeu</desc>
			<v:custProps>
				<v:cp v:nameU="Cost" v:lbl="Coût" v:prompt="" v:type="7" v:format="@" v:sortKey="" v:invis="false" v:ask="false"
						v:langID="1036" v:cal="0"/>
				<v:cp v:nameU="ProcessNumber" v:lbl="Numéro de processus" v:prompt="" v:type="2" v:format="" v:sortKey=""
						v:invis="false" v:ask="false" v:langID="1036" v:cal="0"/>
				<v:cp v:nameU="Owner" v:lbl="Propriétaire" v:prompt="" v:type="0" v:format="" v:sortKey="" v:invis="false"
						v:ask="false" v:langID="1036" v:cal="0"/>
				<v:cp v:nameU="Function" v:lbl="Fonction" v:prompt="" v:type="0" v:format="" v:sortKey="" v:invis="false"
						v:ask="false" v:langID="1036" v:cal="0" v:val="VT4()"/>
				<v:cp v:nameU="StartDate" v:lbl="Date de début" v:prompt="" v:type="5" v:format="" v:sortKey="" v:invis="false"
						v:ask="false" v:langID="1036" v:cal="0"/>
				<v:cp v:nameU="EndDate" v:lbl="Date de fin" v:prompt="" v:type="5" v:format="" v:sortKey="" v:invis="false"
						v:ask="false" v:langID="1036" v:cal="0"/>
				<v:cp v:nameU="Status" v:lbl="État" v:prompt="" v:type="4"
						v:format=";Non commencé;En cours;Terminé;Différé;En attente d’une contribution" v:sortKey=""
						v:invis="false" v:ask="false" v:langID="1036" v:cal="0" v:val="VT4()"/>
			</v:custProps>
			<v:userDefs>
				<v:ud v:nameU="visVersion" v:prompt="" v:val="VT0(14):26"/>
				<v:ud v:nameU="DefaultWidth" v:prompt="" v:val="VT0(0.98425196850394):24"/>
				<v:ud v:nameU="DefaultHeight" v:prompt="" v:val="VT0(0.59055118110236):24"/>
				<v:ud v:nameU="ResizeTxtHeight" v:prompt="" v:val="VT0(0.59055118110236):24"/>
				<v:ud v:nameU="msvThemeColors" v:val="VT0(36):26"/>
				<v:ud v:nameU="msvThemeEffects" v:val="VT0(16):26"/>
			</v:userDefs>
			<v:textBlock v:margins="rect(2,2,2,2)" v:tabSpace="42.5197"/>
			<v:textRect cx="35.4331" cy="574.016" width="70.87" height="42.5197"/>
			<g id="shadow32-181" v:groupContext="shadow" v:shadowOffsetX="1.44" v:shadowOffsetY="-1.44" v:shadowType="1"
					transform="matrix(1,0,0,1,1.44,1.44)" class="st1">
				<rect x="0" y="552.756" width="70.8661" height="42.5197" class="st2"/>
			</g>
			<rect x="0" y="552.756" width="70.8661" height="42.5197" class="st3"/>
			<text x="5.19" y="576.42" class="st4" v:langID="1036"><v:paragraph v:horizAlign="1"/><v:tabList/>Choix mode de jeu</text>		</g>
		<g id="shape33-186" v:mID="33" v:groupContext="shape" v:layerMember="1" transform="translate(311.811,-400.394)">
			<title>Lien dynamique.33</title>
			<v:userDefs>
				<v:ud v:nameU="msvThemeColors" v:val="VT0(36):26"/>
				<v:ud v:nameU="msvThemeEffects" v:val="VT0(16):26"/>
			</v:userDefs>
			<path d="M0 595.28 L21.26 595.28 L21.26 512.01 L36.36 512.01" class="st5"/>
		</g>
	</g>
</svg>
